Barrio,Ruta_Número,Calles,Día,Turno
Centro,FS01,"Humberto 1, Sarmiento, Av. Colon, Av. Olmos, Dean Funes, 27 de Abril, Caseros, Bv. Pte Illia, Av. M. T. de Alvear, Jujuy, Ayacucho, Tucuman, Av. General Paz, Rivadavia, Alvear, Maipu, Chacabuco, Av. H yrigoyen, Av. Ambrosio olmos",Lunes a Sábado,Tarde
Nva Cba,FS01,"Humberto 1, Sarmiento, Av. Colon, Av. Olmos, Dean Funes, 27 de Abril, Caseros, Bv. Pte Illia, Av. M. T. de Alvear, Jujuy, Ayacucho, Tucuman, Av. General Paz, Rivadavia, Alvear, Maipu, Chacabuco, Av. H yrigoyen, Av. Ambrosio olmos",Lunes a Sábado,Tarde
Alberdi,FS02,"Intendente R.B. Mestre, Humberto 1, La Rioja, Santa Rosa, Av. Colon, 9 de Julio, Dean Funes, 27 de Abril. El Recodo, Bv. Quintas de Santa Ana, La Noria, Caseros, Duarte Quiroz, Hualfin, Paseo de la reforma, Pje Verna, Rio Negro, Pje. De Bordones, Santa Cruz, La Pampa, Misiones, Gobernador Pedro frias, Paraguay, Paso de los Andes, Mariano Moreno, San Jose de Calazan",Lunes a Sábado,Tarde
Alberdi,FS03,"Intendente R.B. Mestre, Bv. Las Heras, Humberto 1, La Rioja, Santa Rosa, Av. Colon, 9 de Julio, Dean Funes, 27 de Abril, Caseros, Duarte Quiros, Pje. Dr. Carlos Courel, Coronel Olmedo, Mendoza, Rodriguez Peña, Nicolas Avellaneda,  Gral Artigas, Pje Santo Tomas, Miguel del Corro, Pje. Chicoana, Pje. Couchi Corral, Arturo M Bass, Simon Bolivar, Ayacucho",Lunes a Sábado,Tarde
Centro,FS03,"Intendente R.B. Mestre, Bv. Las Heras, Humberto 1, La Rioja, Santa Rosa, Av. Colon, 9 de Julio, Dean Funes, 27 de Abril, Caseros, Duarte Quiros, Pje. Dr. Carlos Courel, Coronel Olmedo, Mendoza, Rodriguez Peña, Nicolas Avellaneda,  Gral Artigas, Pje Santo Tomas, Miguel del Corro, Pje. Chicoana, Pje. Couchi Corral, Arturo M Bass, Simon Bolivar, Ayacucho",Lunes a Sábado,Tarde
Centro,FS04,"Bv. Las Heras, Bv. Los Andes, Pasaje las heras, Intendente R.B. Mestre, Pje Agustin Perez, Bv. Mitre, 12 de Octubre, Igualdad, La Tablada, Humberto 1, La Rioja, Santa Rosa, Av. Colon, Dean Funes, 27 de Abril, Caseros, Duarte Quiroz, Bv. San Juan, Sucre, Belgrano, Tucuman, Av. Velez Sarfield, Av. General Paz, Obispo Trejo, Rivera Indarte, San Martin, Independencia, Rivadavia, Alvear, Maipu",Lunes a Sábado,Tarde
Alta Cordoba,FS04,"Bv. Las Heras, Bv. Los Andes, Pasaje las heras, Intendente R.B. Mestre, Pje Agustin Perez, Bv. Mitre, 12 de Octubre, Igualdad, La Tablada, Humberto 1, La Rioja, Santa Rosa, Av. Colon, Dean Funes, 27 de Abril, Caseros, Duarte Quiroz, Bv. San Juan, Sucre, Belgrano, Tucuman, Av. Velez Sarfield, Av. General Paz, Obispo Trejo, Rivera Indarte, San Martin, Independencia, Rivadavia, Alvear, Maipu",Lunes a Sábado,Tarde
Centro,FS05,"Libertad, Oncativo, Sarmiento, Lima, Av. Olmos, 25 de Mayo, Rosario de Santa Fe, Parana, Balcarce, Bv. Guzman, Centro civico, Intendente R.B. Mestre, Bv. Ocampo, Ov. Lagos, Fray M. Esquiu, Felix Frias, David luque, Coronel Pringles, Jacinto Rios, Viamonte, Roma",Lunes a Sábado,Tarde
General Paz,FS05,"Libertad, Oncativo, Sarmiento, Lima, Av. Olmos, 25 de Mayo, Rosario de Santa Fe, Parana, Balcarce, Bv. Guzman, Centro civico, Intendente R.B. Mestre, Bv. Ocampo, Ov. Lagos, Fray M. Esquiu, Felix Frias, David luque, Coronel Pringles, Jacinto Rios, Viamonte, Roma",Lunes a Sábado,Tarde
Parque Sarmiento,FS06,"Av. Arturo Illia, Av Sabatini, Av. Ricardo Luti, Av. Deodoro Roca, Crisol, Av. Concepción Arenal, Av. Poeta Lugones, Amado Roldan, Pje. Publico, Republica de chile, Carlos Thays, Paunero",Lunes a Sábado,Tarde
Ciudad Universitaria,FS07,"Peredo, Crisol, Chile, Brasil, Peru, Bolivia, Santiago Temple, colombia, Richarson, Venezuela, Av. Los Nogales, El cordobazo, Via de los artes, Enfermera Gordillo, Av. Haya de la torre, Av. Dr. Medina Allende, Juan Filioy, Cruz Roja, Av. Velez Sarfield, Obispo Trejo, Independencia, Pasaje España, Buenos Aires, Pje. Voltodano, Ituzaingo, Bv. de la reforma, Av. Ciudad de Valparaiso, Ministro lopez, Av. Rogelio Nores Martinez, Av. Wenceslao Paunero",Lunes a Sábado,Tarde
Nva Cba,FS08,"Bv. San juan, Bv. Illia, Montevideo, Rondeu, San Luis, San Lorenzo, Laprida, obispo Oro, Achaval Rodriguez, Derqui, Fructuoso Rivera, Damaso Larrañaga, Av Pueyrredon, AV. Estrada, Angelo de Peredo, Brasil, Peru, Pje. Estevez, Enrique lacosta, Santiago Temple, Bambilla, Richardson; Marcelo T. de Alvear, Ayacucho, belgrano, turrado Juarez, Velez sarfield, obispo Trejo, Independencia, Buenos Aires, Ituzaingo",Lunes a Sábado,Tarde
Guemes,FS08,"Bv. San juan, Bv. Illia, Montevideo, Rondeu, San Luis, San Lorenzo, Laprida, obispo Oro, Achaval Rodriguez, Derqui, Fructuoso Rivera, Damaso Larrañaga, Av Pueyrredon, AV. Estrada, Angelo de Peredo, Brasil, Peru, Pje. Estevez, Enrique lacosta, Santiago Temple, Bambilla, Richardson; Marcelo T. de Alvear, Ayacucho, belgrano, turrado Juarez, Velez sarfield, obispo Trejo, Independencia, Buenos Aires, Ituzaingo",Lunes a Sábado,Tarde
Centro,FS09,"Libertad, Oncativo, Catamarca, Lima, Av. Emilio Olmos, 25 de Mayo, Rosario de Santa Fe, San Jeronimo, Entre Rios, Corrientes,Pje. Antun, Pje. Tomas Oliver, Bv Illia, Rondeu, Buenso Aires, Ituzaingo, Bv. Chacabuco, Pje. Scabuzza, Ob. Salguero, Parana, Balcarce, T. Caceres, Bv. Guzman, Presidente Peron",Lunes a Sábado,Tarde
Nva Cba,FS09,"Libertad, Oncativo, Catamarca, Lima, Av. Emilio Olmos, 25 de Mayo, Rosario de Santa Fe, San Jeronimo, Entre Rios, Corrientes,Pje. Antun, Pje. Tomas Oliver, Bv Illia, Rondeu, Buenso Aires, Ituzaingo, Bv. Chacabuco, Pje. Scabuzza, Ob. Salguero, Parana, Balcarce, T. Caceres, Bv. Guzman, Presidente Peron",Lunes a Sábado,Tarde
Peatonal,FS10,"Dean Funes, Santa Catalina, Rosario de Santa Fe, Caseros, Ayacucho, Rivera Indarte, Obispo Trejo, San Martin, independencia",Lunes a Sábado,Tarde
Peatonal,FS11,"Pje. Cautacara, 9 de Julio, 25 de Mayo, Rep. De Israel, Rivera Indarte, San Martin",Lunes a Sábado,Tarde
