Barrio,Calles,Ruta_Número,Día,Turno
EL REFUGIO,,300,Lunes a Sábados,06:00 a 14:00 hs
SAN JOSE,,300,Lunes a Sábados,06:00 a 14:00 hs
VILLA RIVERA INDARTE,"LAGUNA LARGA 8900, ENRIQUE BODEREAU 7720",301,Lunes a Sábados,06:00 a 14:00 hs
CERRO NORTE,MOLLEYACO Nº 8250 Y PAYEN,302,Lunes a Sábados,06:00 a 14:00 hs
VILLA ALLENDE PARQUE,Muluches s/n.,302,Lunes a Sábados,06:00 a 14:00 hs
VILLA 9 DE JULIO,Coquena esq Huarpes.,303,Lunes a Sábados,06:00 a 14:00 hs
VILLA QUIZQUISACATE,,303,Lunes a Sábados,06:00 a 14:00 hs
VILLA SILVANO FUNES,,303,Lunes a Sábados,06:00 a 14:00 hs
ARGUELLO NORTE,"VALERIO BETA 7300, RODOLFO DE ALZAGA 7373",304,Lunes a Sábados,06:00 a 14:00 hs
CERRO NORTE,MOLLEYACO Nº 8250 Y PAYEN,304,Lunes a Sábados,06:00 a 14:00 hs
DE LOS BIOQUIMICOS,,304,Lunes a Sábados,06:00 a 14:00 hs
UOCRA,"Matra esq Malalco, MALALCO 7261",304,Lunes a Sábados,06:00 a 14:00 hs
ALBORADA NORTE,,305,Lunes a Sábados,06:00 a 14:00 hs
ARGUELLO,MIGUEL VERA 7793,305,Lunes a Sábados,06:00 a 14:00 hs
LA SALLE,CURAQUEN 6700,305,Lunes a Sábados,06:00 a 14:00 hs
QUINTAS DE ARGUELLO,"ANDRES PIÑERO 7785, MONTUFAL Y CORONADO 7126",305,Lunes a Sábados,06:00 a 14:00 hs
VILLA SOLFERINO,,305,Lunes a Sábados,06:00 a 14:00 hs
ARGÜELLO,TABACUE 9150,306,Lunes a Sábados,06:00 a 14:00 hs
DE LOS BIOQUIMICOS,,306,Lunes a Sábados,06:00 a 14:00 hs
POLICIAL,,306,Lunes a Sábados,06:00 a 14:00 hs
VILLA CORNU,TABACUE ESQ. CAUQUE,306,Lunes a Sábados,06:00 a 14:00 hs
ARGUELLO LOURDES,JUAN GAUDINO 6834,307,Lunes a Sábados,06:00 a 14:00 hs
AUTODROMO,"ERNESTO BOSSOLA S/N ENTRE CALVIÑO Y BORDEAU, M. CALVIÑO ESQ. D. MARIMON",307,Lunes a Sábados,06:00 a 14:00 hs
I.P.V. ARGUELLO NORTE,BEJANELE 6200,307,Lunes a Sábados,06:00 a 14:00 hs
ARGÜELLO,GABRIEL TOMASSINI 6951,308,Lunes a Sábados,06:00 a 14:00 hs
I.P.V. ARGUELLO NORTE,"FERMIN MARTIN - MZNA 24, LUCIANO PIQUET 6200",309,Lunes a Sábados,06:00 a 14:00 hs
ARGUELLO,Ricardo Rojas esq Av. Rafael Nuñez,310,Lunes a Sábados,06:00 a 14:00 hs
GRANJA DE FUNES,"CALLE PUBLICA S/N, AGUSTIN ALCAIN 6032",311,Lunes a Sábados,06:00 a 14:00 hs
PADRE CLARET,,311,Lunes a Sábados,06:00 a 14:00 hs
VILLA CLARET,,311,Lunes a Sábados,06:00 a 14:00 hs
APEADERO LA TABLADA,,312,Lunes a Sábados,06:00 a 14:00 hs
BRIGADIER SAN MARTIN,,312,Lunes a Sábados,06:00 a 14:00 hs
LOS BOULEVARES,"BV DE LOS CASTELLANOS 6002, BV. LOS POLACOS ESQ. BV. LOS HUNGAROS, AV. LOS ALEMANES 4255",312,Lunes a Sábados,06:00 a 14:00 hs
VILLA CLARET,,312,Lunes a Sábados,06:00 a 14:00 hs
ARCOS I,,313,Lunes a Sábados,06:00 a 14:00 hs
ARGUELLO,"RAIMUNDO CAPARROZ 7347, POZO DE LOMA 7309",313,Lunes a Sábados,06:00 a 14:00 hs
BRIGADIER SAN MARTIN,,313,Lunes a Sábados,06:00 a 14:00 hs
VILLA BELGRANO,D`ALEMBERT 5655,314,Lunes a Sábados,06:00 a 14:00 hs
ARGUELLO IPV,Martin Fermin esq Alberto Fage,315,Lunes a Sábados,06:00 a 14:00 hs
LOS BOULEVARES,CNO.A PAJAS BLANCAS KM.8,315,Lunes a Sábados,06:00 a 14:00 hs
LOS BOULEVARES ANEXO,CALLE PUBLICA S/N,315,Lunes a Sábados,06:00 a 14:00 hs
GUIÑAZU,"DE LA CAJA ESQ. DEL ERQUENCHO, Calle Ibar Segura Funes s/n, JUAN B JUSTO KM9653, RUTA 9 KM 13 ½",316,Lunes a Sábados,06:00 a 14:00 hs
LICEO GENERAL PAZ,JUAN B JUSTO 6900,316,Lunes a Sábados,06:00 a 14:00 hs
MARIA LASTENIA,JUAN B. JUSTO 8560,316,Lunes a Sábados,06:00 a 14:00 hs
RECREO DEL NORTE,,316,Lunes a Sábados,06:00 a 14:00 hs
AMPLIACION POETA LUGONES,,317,Lunes a Sábados,06:00 a 14:00 hs
NUEVO POETA LUGONES,Av. Monseñor Pablo Cabrera 4800,317,Lunes a Sábados,06:00 a 14:00 hs
POETA LUGONES ANEXO,JULIO ESSAIN ESQ. CAYOL Nº 25,317,Lunes a Sábados,06:00 a 14:00 hs
JERONIMO L. DE CABRERA,CAROLA LORENZINI 381,318,Lunes a Sábados,06:00 a 14:00 hs
JORGE NEWBERY,TEODORO FELS 5860,318,Lunes a Sábados,06:00 a 14:00 hs
PARQUE LICEO 1era SECCION,,318,Lunes a Sábados,06:00 a 14:00 hs
REMEDIOS DE ESCALADA,"F.F.C.C. GRAL. MANUEL BELGRANO, CORTADA 8 S/N -MARIA O. LOYOLA S/Nº",318,Lunes a Sábados,06:00 a 14:00 hs
AMP. AMERICA,SOSA REVELLO 590,319,Lunes a Sábados,06:00 a 14:00 hs
AMPLIACION PANAMERICANO,Marcos Infante 550.,319,Lunes a Sábados,06:00 a 14:00 hs
JUAN B. JUSTO,FRAGUEIRO 4915,319,Lunes a Sábados,06:00 a 14:00 hs
MARIANO FRAGUEIRO,AVELLANEDA 4150,319,Lunes a Sábados,06:00 a 14:00 hs
MARIANO FRAGUEIRO - ANEXO IPV,URQUIZA 4800,319,Lunes a Sábados,06:00 a 14:00 hs
PANAMERICANO,,319,Lunes a Sábados,06:00 a 14:00 hs
HIPOLITO IRIGOYEN,AVELLANEDA 3571,320,Lunes a Sábados,06:00 a 14:00 hs
MARQUES DE SOBREMONTE ANEXO,FRANCISCO SUAREZ ESQ. DEL CANAL,320,Lunes a Sábados,06:00 a 14:00 hs
PANAMERICANO,,320,Lunes a Sábados,06:00 a 14:00 hs
CIUDAD CHINGOLO I,CALLE PUBLICA S/N,321,Lunes a Sábados,06:00 a 14:00 hs
PARQUE LICEO 2da SECCION,"MANUEL GUTIERREZ NAJERA 1056, JUAN MOLTALVO 4676, BARTOLOME HIDALGO Y OLEGARIO V. ANDRADE, ATALIVA HERRERA Y COLECTORA",321,Lunes a Sábados,06:00 a 14:00 hs
PARQUE LICEO 3era SECCION,,322,Lunes a Sábados,06:00 a 14:00 hs
CIUDAD JUAN PABLO II,CALLE PUBLICA S/N MANZANA 116 LOTE 3,323,Lunes a Sábados,06:00 a 14:00 hs
LOS GIGANTES,JOAQUIN CASTELLANO Y JOSE DE OLMEDO,323,Lunes a Sábados,06:00 a 14:00 hs
LOS GIGANTES ANEXO,PODESTA 3900 ESQ. CALLE PUBLICA,323,Lunes a Sábados,06:00 a 14:00 hs
DOCTOR RAMON JOSE CARCANO,PEDRO NAON 1330,324,Lunes a Sábados,06:00 a 14:00 hs
AMP. GRAL SAVIO,ESCOLASTICO MAGAN S-7N MZA 43 LOTE 2,325,Lunes a Sábados,06:00 a 14:00 hs
GENERAL SAVIO,,325,Lunes a Sábados,06:00 a 14:00 hs
VILLA AZALAIS,"CANDIDO GALVAN 1331, JOAQUIN V. MONTAÑA 1350, GELLY Y OBES 3110 ESQ. RAMON MUNILLA, JUAN GARRAMENDY ESQ. GUELLY",325,Lunes a Sábados,06:00 a 14:00 hs
VILLA AZALAIS (O),"PABLO NERUDA Y ACAMPES, ACAMPES ESQ. GERCHUNOFF",325,Lunes a Sábados,06:00 a 14:00 hs
PAULA ALBARRACIN DE SARMIENTO,MILAN 2960,325,Lunes a Sábados,06:00 a 14:00 hs
VILLA AZALAIS,"CANDIDO GALVAN 1331, JOAQUIN V. MONTAÑA 1350, GELLY Y OBES 3110 ESQ. RAMON MUNILLA, JUAN GARRAMENDY ESQ. GUELLY",327,Lunes a Sábados,06:00 a 14:00 hs
VILLA AZALAIS (O),"PABLO NERUDA Y ACAMPES, ACAMPES ESQ. GERCHUNOFF",327,Lunes a Sábados,06:00 a 14:00 hs
PAULA ALBARRACIN DE SARMIENTO,MILAN 2960,327,Lunes a Sábados,06:00 a 14:00 hs
VILLA CORINA,Rancagua 2865.,327,Lunes a Sábados,06:00 a 14:00 hs
ARTURO CAPDEVILA,FEDERICO RAUCH 2789,328,Lunes a Sábados,06:00 a 14:00 hs
PATRICIOS,"JOSE VILLEGAS 2100, MARIANO USANDIVARAS 2254",328,Lunes a Sábados,06:00 a 14:00 hs
RESIDENCIAL ARAGON,,328,Lunes a Sábados,06:00 a 14:00 hs
PATRICIOS NORTE,,329,Lunes a Sábados,06:00 a 14:00 hs
PATRICIOS OESTE,MADRE MARÍA BRIGIDA PASTORINO 3500,329,Lunes a Sábados,06:00 a 14:00 hs
RESIDENCIAL ARAGON,,330,Lunes a Sábados,06:00 a 14:00 hs
FINCA LA DOROTEA,,331,Lunes a Sábados,06:00 a 14:00 hs
GENERAL ARENALES,,331,Lunes a Sábados,06:00 a 14:00 hs
ZEPA A Y B,CALLE PUBLICA S/N DETRÁS DEL MERCADO DE ABASTO,331,Lunes a Sábados,06:00 a 14:00 hs
AMPLIACION PALMAR,ANTONIO MACHONI 1700,332,Lunes a Sábados,06:00 a 14:00 hs
LA FLORESTA,CALLE PUBLICA S/Nº,332,Lunes a Sábados,06:00 a 14:00 hs
PALMAR,,332,Lunes a Sábados,06:00 a 14:00 hs
VILLA CLAUDINA,"OCARINA 1613, CNO A MONTE CRISTO KM 5 Y ½",332,Lunes a Sábados,06:00 a 14:00 hs
YOFRE I,,333,Lunes a Sábados,06:00 a 14:00 hs
YOFRE SUR,EDUARDO DE SAN MARTIN 1282,333,Lunes a Sábados,06:00 a 14:00 hs
AMPLIACION PUEYRREDÓN,,334,Lunes a Sábados,06:00 a 14:00 hs
AMPLIACION PUEYRREDÓN,,334,Domingo a Viernes,20:00 a 03:00 hs
AMPLIACION YAPEYU,,335,Lunes a Sábados,06:00 a 14:00 hs
BAJADA DE PIEDRA,,335,Lunes a Sábados,06:00 a 14:00 hs
ALBORADA SUR,,400,Domingo a Viernes,20:00 a 03:00 hs
ALEJANDRO CENTENO,,400,Domingo a Viernes,20:00 a 03:00 hs
SAN MARCELO,,400,Domingo a Viernes,20:00 a 03:00 hs
SANTA CECILIA,Buffa esq Ob Mercadillo.,400,Domingo a Viernes,20:00 a 03:00 hs
VILLA MARTA,,400,Domingo a Viernes,20:00 a 03:00 hs
CERRO CHICO,,401,Domingo a Viernes,20:00 a 03:00 hs
PARQUE COREMA,GREGORIO DE LAFERRERE 2435,401,Domingo a Viernes,20:00 a 03:00 hs
TABLADA PARK,,401,Domingo a Viernes,20:00 a 03:00 hs
VILLA CENTENARIO,"F. ORTIZ DE OCAMPO 4421, FCO.ORTIZ DE OCAMPO 4445",401,Domingo a Viernes,20:00 a 03:00 hs
ALTOS DE VILLA CABRERA,,402,Domingo a Viernes,20:00 a 03:00 hs
VALLE DEL CERRO,,402,Domingo a Viernes,20:00 a 03:00 hs
VILLA CABRERA,J. LOPEZ 2050,402,Domingo a Viernes,20:00 a 03:00 hs
CERRO DE LAS ROSAS,"TRISTAN MALBRAN 4052, AV. FERNANDO FADER 3821, AV. SAGRADA FAMILIA 1545, AV. T. MALBRAN 4178, NICANOR CARRANZA 3445",403,Domingo a Viernes,20:00 a 03:00 hs
URCA,PEDRO N. RODRIG. ESQ. BARROS PASOS,403,Domingo a Viernes,20:00 a 03:00 hs
AMPLIACIÓN URCA,,404,Domingo a Viernes,20:00 a 03:00 hs
COLINAS DEL CERRO,MARIANO MANSILLA1025,404,Domingo a Viernes,20:00 a 03:00 hs
URCA,PEDRO N. RODRIG. ESQ. BARROS PASOS,404,Domingo a Viernes,20:00 a 03:00 hs
ESCOBAR,,405,Domingo a Viernes,20:00 a 03:00 hs
LAS ROSAS,,405,Domingo a Viernes,20:00 a 03:00 hs
PALERMO BAJO,,405,Domingo a Viernes,20:00 a 03:00 hs
ALTOS DE VILLA CABRERA,,406,Domingo a Viernes,20:00 a 03:00 hs
BAJO GALÁN,AV. CASTRO BARROS 1285,406,Domingo a Viernes,20:00 a 03:00 hs
VILLA CABRERA,ITALIA 2247,406,Domingo a Viernes,20:00 a 03:00 hs
ALTOS DE SAN MARTIN,,407,Domingo a Viernes,20:00 a 03:00 hs
LOMAS DE SAN MARTIN,,407,Domingo a Viernes,20:00 a 03:00 hs
PARQUE CHACABUCO,,407,Domingo a Viernes,20:00 a 03:00 hs
ALTO PALERMO,,408,Domingo a Viernes,20:00 a 03:00 hs
ALTO VERDE,LA GRANJA 3199,408,Domingo a Viernes,20:00 a 03:00 hs
LA FRANCE,"MANUEL CARDEÑOSA 2800, AV. CARDEÑOSA 2835, CURUPAITI 3264",408,Domingo a Viernes,20:00 a 03:00 hs
POETA LUGONES,"CAMAÑO Y BAZAN 4750, LARTIGAU LESPADA 3050",409,Domingo a Viernes,20:00 a 03:00 hs
MARQUES DE SOBREMONTE,"BARRAGAN 450, PEREZ CORREA 1500, NUFLO DE AGUILAR 541",410,Domingo a Viernes,20:00 a 03:00 hs
GRANADERO PRINGLES,,412,Domingo a Viernes,20:00 a 03:00 hs
ZUMARAN,"PLATON 3030, SEBASTIAN GABOTO 2356",412,Domingo a Viernes,20:00 a 03:00 hs
LOMAS DE SAN MARTIN,,413,Domingo a Viernes,20:00 a 03:00 hs
SAN MARTIN,"BRANDSEN 47, COLOMBRES Y ZAPIOLA, CASTRO BARROS 842, GRAL.TOMAS GUIDO 114, CERRITO 1820, CERRITO 1025",413,Domingo a Viernes,20:00 a 03:00 hs
I.P.E.M. N° 103 - ESTEBAN ECHEVERRIA,USPALLATA 991,413,Domingo a Viernes,20:00 a 03:00 hs
SAN MARTIN ANEXO,CORNELIO SAAVEDRA 619,413,Domingo a Viernes,20:00 a 03:00 hs
SAN MARTIN,"BRANDSEN 47, COLOMBRES Y ZAPIOLA, CASTRO BARROS 842, GRAL.TOMAS GUIDO 114, CERRITO 1820, CERRITO 1025",414,Domingo a Viernes,20:00 a 03:00 hs
I.P.E.M. N° 103 - ESTEBAN ECHEVERRIA,USPALLATA 991,414,Domingo a Viernes,20:00 a 03:00 hs
VILLA CABRERA,JULIAN PAZ 1865 ESQ. CARAFFA AL 2200,414,Domingo a Viernes,20:00 a 03:00 hs
ALTA CORDOBA,FRAGUEIRO 3017,416,Domingo a Viernes,20:00 a 03:00 hs
LA FRATERNIDAD,,416,Domingo a Viernes,20:00 a 03:00 hs
LOS PARAISOS,,416,Domingo a Viernes,20:00 a 03:00 hs
SARGENTO CABRAL,FRANCISCO SUAREZ 3170,416,Domingo a Viernes,20:00 a 03:00 hs
ALTA CORDOBA,"TRAFALGAR 875, TUCUMAN 2947",417,Domingo a Viernes,20:00 a 03:00 hs
LOS PARAISOS,,417,Domingo a Viernes,20:00 a 03:00 hs
ALTA CORDOBA,"ANTONIO DEL VISO 756, RODRIGUEZ PEÑA 1548, FRAGUEIRO 2164, MANUEL LUCERO 560",418,Domingo a Viernes,20:00 a 03:00 hs
COFICO,AV. ROQUE S. PEÑA 1211,419,Domingo a Viernes,20:00 a 03:00 hs
AYACUCHO,M.ALVAREZ DE LAS CASAS 280,420,Domingo a Viernes,20:00 a 03:00 hs
CENTRO AMERICA,"LESSEPS 250, FERDINAND DE LESSEPS 140",420,Domingo a Viernes,20:00 a 03:00 hs
GENERAL BUSTOS,"AV. AUGUSTO LOPEZ 643, Saravia 1455.",421,Domingo a Viernes,20:00 a 03:00 hs
GENERAL BUSTOS,"MAURICIO YADAROLA 653, GALEOTTI 1250, MAURICIO YADAROLA 653 ESQ. DIAGONAL ICA, Saravia 1455.",422,Domingo a Viernes,20:00 a 03:00 hs
GENERAL BUSTOS,DIAGONAL IKA 1010,423,Domingo a Viernes,20:00 a 03:00 hs
RESIDENCIAL AMERICA,"Florencio Parravicini esq Juan B Justo, DIAGONAL ICA ESQ SANTISO Y MOSCOSO 1250, JAMAICA 901",423,Domingo a Viernes,20:00 a 03:00 hs
ALEM,AV. DEL TRABAJO 551,424,Domingo a Viernes,20:00 a 03:00 hs
GENERAL BUSTOS,Saravia 1455.,425,Domingo a Viernes,20:00 a 03:00 hs
GUAYAQUIL,NONDOLMA 1660,425,Domingo a Viernes,20:00 a 03:00 hs
LEANDRO N. ALEM,"COLOMPREA 1500, CAMICALTA 1650",425,Domingo a Viernes,20:00 a 03:00 hs
SAN NICOLAS,,425,Domingo a Viernes,20:00 a 03:00 hs
TALLERES OESTE,,425,Domingo a Viernes,20:00 a 03:00 hs
TALLERES ESTE,"PUNTA DEL SAUCE 1500, ROBERTO LEVILLIER 1848",426,Domingo a Viernes,20:00 a 03:00 hs
SANTA CLARA DE ASIS,,427,Domingo a Viernes,20:00 a 03:00 hs
VIVERO,A. CAPDEVILA Y DIAZ COLODRERO,427,Domingo a Viernes,20:00 a 03:00 hs
NUEVA ITALIA,JOSE DE QUEVEDO Y DOS BARRIOS,428,Domingo a Viernes,20:00 a 03:00 hs
PARQUE MONTECRISTO,PEDRO DE LEDESMA 1755,428,Domingo a Viernes,20:00 a 03:00 hs
YOFRE H,,429,Domingo a Viernes,20:00 a 03:00 hs
YOFRE NORTE,"JACINTO ALTOLAGUIRRE 2089, NICOLAS DE ISASMENDI ESQ. MARTIN ALLENDE 2005",429,Domingo a Viernes,20:00 a 03:00 hs
AMPLIACION PUEYRREDÓN,,430,Lunes a Sábados,06:00 a 14:00 hs
AMPLIACION PUEYRREDÓN,,430,Domingo a Viernes,20:00 a 03:00 hs
PUEYRREDON,"Rincón, CELEDONIO FLORES 1426, COCHABAMBA 3200, SUIPACHA 2309, ANA MARIA JANER 1551, ESQUIU 1340",430,Domingo a Viernes,20:00 a 03:00 hs
PUEYRREDON,JUAN CAVERO 1280,430,Lunes a Sábados,06:00 a 14:00 hs
PUEYRREDON,"Rincón, CELEDONIO FLORES 1426, COCHABAMBA 3200, SUIPACHA 2309, ANA MARIA JANER 1551, ESQUIU 1340",431,Domingo a Viernes,20:00 a 03:00 hs
PUEYRREDON,JUAN CAVERO 1280,431,Lunes a Sábados,06:00 a 14:00 hs
ALTO GENERAL PAZ,JOSE GARIBALDI 710,432,Domingo a Viernes,20:00 a 03:00 hs
GENERAL PAZ,VIAMONTE 446,432,Domingo a Viernes,20:00 a 03:00 hs
PATRIA,,432,Domingo a Viernes,20:00 a 03:00 hs
HOGAR PROPIO,,433,Domingo a Viernes,20:00 a 03:00 hs
YAPEYU,"GERMANIA 2665, 24 DE SETIEMBRE 2400",433,Domingo a Viernes,20:00 a 03:00 hs
BAJO GENERAL PAZ,,434,Domingo a Viernes,20:00 a 03:00 hs
JUNIORS,"ARENALES ESQ. LA PLATA, LEONOR DE TEJEDA 1353",435,Domingo a Viernes,20:00 a 03:00 hs
CIUDAD VILLA RETIRO,RUTA PROV. 112 CALLE CHINGOLO S/Nº,VILLAS 1,Lunes a Sábados,06:00 a 14:00 hs
CIUDAD VILLA RETIRO ANEXO,MANZANA 9 - CALLE PÚBLICA S/N,VILLAS 1,Lunes a Sábados,06:00 a 14:00 hs
COLINAS DEL CERRO AMPLIACION,,VILLAS 1,Lunes a Sábados,06:00 a 14:00 hs
EL GATEADO,"CAMINO A SANTIAGO DEL ESTERO 0, RUTA 111 KM.12 - ZONA RURAL",VILLAS 1,Lunes a Sábados,06:00 a 14:00 hs
PROVIDENCIA,,VILLAS 1,Domingo a Viernes,20:00 a 03:00 hs
VILLA ESQUIU,AV. ARTURO CAPDEVILA 9500,VILLAS 2,Lunes a Sábados,06:00 a 14:00 hs
I.P.E.M. N° 192 - DR. JOSE RAMON IBAÑEZ,ARTURO CAPDEVILA KM 10,VILLAS 2,Lunes a Sábados,06:00 a 14:00 hs
VILLA ESQUIU,LAS QUINTAS S/Nº - EX AVDA. ARTURO CAPDEVILA KM 9/2,VILLAS 2,Lunes a Sábados,06:00 a 14:00 hs
VILLA GRAN PARQUE,,VILLAS 2,Lunes a Sábados,06:00 a 14:00 hs
VILLA RETIRO,CALLE PUBLICA S/N - MZA. 9,VILLAS 2,Lunes a Sábados,06:00 a 14:00 hs
LICEO GENERAL PAZ,JUAN B JUSTO 6900,VILLAS 2,Lunes a Sábados,06:00 a 14:00 hs
