Barrio,Calles,Ruta_Número,Día,Turno
VILLA RIVERA INDARTE,"LAGUNA LARGA 8900, ENRIQUE BODEREAU 7720",1,Lunes 1era quincena,06:00 a 14:00 hs
CERRO NORTE,MOLLEYACO Nº 8250 Y PAYEN,2,Lunes 1era quincena,06:00 a 14:00 hs
DE LOS BIOQUIMICOS,,2,Lunes 1era quincena,06:00 a 14:00 hs
POLICIAL,,2,Lunes 1era quincena,06:00 a 14:00 hs
UOCRA,"Matra esq Malalco, MALALCO 7261",2,Lunes 1era quincena,06:00 a 14:00 hs
VILLA ALLENDE PARQUE,Muluches s/n.,2,Lunes 1era quincena,06:00 a 14:00 hs
VILLA CORNU,TABACUE ESQ. CAUQUE,2,Lunes 1era quincena,06:00 a 14:00 hs
EL REFUGIO,,3,Lunes 1era quincena,06:00 a 14:00 hs
LA SALLE,CURAQUEN 6700,3,Lunes 1era quincena,06:00 a 14:00 hs
SAN JOSE,,3,Lunes 1era quincena,06:00 a 14:00 hs
VILLA 9 DE JULIO,Coquena esq Huarpes.,3,Lunes 1era quincena,06:00 a 14:00 hs
VILLA QUIZQUISACATE,RICARDO ROJAS 8176,3,Lunes 1era quincena,06:00 a 14:00 hs
ALBORADA NORTE,,4,Martes 1era quincena,06:00 a 14:00 hs
QUINTAS DE ARGUELLO,"ANDRES PIÑERO 7785, MONTUFAL Y CORONADO 7126",4,Martes 1era quincena,06:00 a 14:00 hs
VILLA SOLFERINO,,4,Martes 1era quincena,06:00 a 14:00 hs
ARCOS I,,5,Martes 1era quincena,06:00 a 14:00 hs
PADRE CLARET,,5,Martes 1era quincena,06:00 a 14:00 hs
VILLA MARTA,,5,Martes 1era quincena,06:00 a 14:00 hs
VILLA SILVANO FUNES,,5,Martes 1era quincena,06:00 a 14:00 hs
ARGUELLO IPV,Martin Fermin esq Alberto Fage,6,Martes 1era quincena,06:00 a 14:00 hs
ARGUELLO LOURDES,JUAN GAUDINO 6834,6,Martes 1era quincena,06:00 a 14:00 hs
ARGUELLO NORTE,"VALERIO BETA 7300, RODOLFO DE ALZAGA 7373",6,Martes 1era quincena,06:00 a 14:00 hs
AUTODROMO,"ERNESTO BOSSOLA S/N ENTRE CALVIÑO Y BORDEAU, M. CALVIÑO ESQ. D. MARIMON",6,Martes 1era quincena,06:00 a 14:00 hs
I.P.V. ARGUELLO NORTE,"FERMIN MARTIN - MZNA 24, LUCIANO PIQUET 6200, BEJANELE 6200",6,Martes 1era quincena,06:00 a 14:00 hs
APEADERO LA TABLADA,,7,Miercoles 1era quincena,06:00 a 14:00 hs
LOS BOULEVARES,BV. LOS POLACOS ESQ. BV. LOS HUNGAROS,7,Miercoles 1era quincena,06:00 a 14:00 hs
VILLA CLARET,,7,Miercoles 1era quincena,06:00 a 14:00 hs
AMPLIACION POETA LUGONES,,8,Miercoles 1era quincena,06:00 a 14:00 hs
LOS BOULEVARES,"BV DE LOS CASTELLANOS 6002, AV. LOS ALEMANES 4255",8,Miercoles 1era quincena,06:00 a 14:00 hs
LOS BOULEVARES ANEXO,CALLE PUBLICA S/N,8,Miercoles 1era quincena,06:00 a 14:00 hs
SANTA CECILIA,Buffa esq Ob Mercadillo.,8,Miercoles 1era quincena,06:00 a 14:00 hs
LA FRANCE,"MANUEL CARDEÑOSA 2800, CURUPAITI 3264",9,Miercoles 1era quincena,06:00 a 14:00 hs
NUEVO POETA LUGONES,Av. Monseñor Pablo Cabrera 4800,9,Miercoles 1era quincena,06:00 a 14:00 hs
POETA LUGONES,"CAMAÑO Y BAZAN 4750, LARTIGAU LESPADA 3050",9,Miercoles 1era quincena,06:00 a 14:00 hs
POETA LUGONES ANEXO,JULIO ESSAIN ESQ. CAYOL Nº 25,9,Miercoles 1era quincena,06:00 a 14:00 hs
ALBORADA SUR,,10,Jueves 1era quincena,06:00 a 14:00 hs
ALEJANDRO CENTENO,,10,Jueves 1era quincena,06:00 a 14:00 hs
ALTO PALERMO,,10,Jueves 1era quincena,06:00 a 14:00 hs
CERRO CHICO,,10,Jueves 1era quincena,06:00 a 14:00 hs
PARQUE COREMA,GREGORIO DE LAFERRERE 2435,10,Jueves 1era quincena,06:00 a 14:00 hs
SAN MARCELO,,10,Jueves 1era quincena,06:00 a 14:00 hs
TABLADA PARK,,10,Jueves 1era quincena,06:00 a 14:00 hs
VILLA CENTENARIO,F. ORTIZ DE OCAMPO 4421,10,Jueves 1era quincena,06:00 a 14:00 hs
AMPLIACIÓN URCA,,11,Jueves 1era quincena,06:00 a 14:00 hs
COLINAS DEL CERRO,MARIANO MANSILLA1025,11,Jueves 1era quincena,06:00 a 14:00 hs
COLINAS DEL CERRO AMPLIACION,,11,Jueves 1era quincena,06:00 a 14:00 hs
URCA,PEDRO N. RODRIG. ESQ. BARROS PASOS,11,Jueves 1era quincena,06:00 a 14:00 hs
VALLE DEL CERRO,,11,Jueves 1era quincena,06:00 a 14:00 hs
ESCOBAR,,12,Jueves 1era quincena,06:00 a 14:00 hs
LAS ROSAS,,12,Jueves 1era quincena,06:00 a 14:00 hs
PALERMO BAJO,,12,Jueves 1era quincena,06:00 a 14:00 hs
ALTO VERDE,LA GRANJA 3199,13,Viernes 1era quincena,06:00 a 14:00 hs
ALTOS DE SAN MARTIN,,13,Viernes 1era quincena,06:00 a 14:00 hs
ALTOS DE VILLA CABRERA,,13,Viernes 1era quincena,06:00 a 14:00 hs
PARQUE CHACABUCO,,13,Viernes 1era quincena,06:00 a 14:00 hs
LOMAS DE SAN MARTIN,,14,Viernes 1era quincena,06:00 a 14:00 hs
LOS PARAISOS,,14,Viernes 1era quincena,06:00 a 14:00 hs
SAN MARTIN ANEXO,CORNELIO SAAVEDRA 619,14,Viernes 1era quincena,06:00 a 14:00 hs
GRANADERO PRINGLES,,15,Viernes 1era quincena,06:00 a 14:00 hs
MARQUES DE SOBREMONTE,"BARRAGAN 450, PEREZ CORREA 1500, NUFLO DE AGUILAR 541",15,Viernes 1era quincena,06:00 a 14:00 hs
MARQUES DE SOBREMONTE ANEXO,FRANCISCO SUAREZ ESQ. DEL CANAL,15,Viernes 1era quincena,06:00 a 14:00 hs
PROVIDENCIA,,16,Sabado 1era quincena,06:00 a 14:00 hs
VILLA CABRERA,"JULIAN PAZ 1865 ESQ. CARAFFA AL 2200, J. LOPEZ 2050, ITALIA 2247",16,Sabado 1era quincena,06:00 a 14:00 hs
SAN MARTIN,"BRANDSEN 47, COLOMBRES Y ZAPIOLA",17,Sabado 1era quincena,06:00 a 14:00 hs
I.P.E.M. N° 103 - ESTEBAN ECHEVERRIA,USPALLATA 991,17,Sabado 1era quincena,06:00 a 14:00 hs
SAN MARTIN,"CASTRO BARROS 842, GRAL.TOMAS GUIDO 114, CERRITO 1820, CERRITO 1025",17,Sabado 1era quincena,06:00 a 14:00 hs
ALTA CORDOBA,"ANTONIO DEL VISO 756, FRAGUEIRO 3017, RODRIGUEZ PEÑA 1548, FRAGUEIRO 2164, TRAFALGAR 875, TUCUMAN 2947, MANUEL LUCERO 560",18,Sabado 1era quincena,06:00 a 14:00 hs
AYACUCHO,M.ALVAREZ DE LAS CASAS 280,19,Lunes 2da quincena,06:00 a 14:00 hs
LA FRATERNIDAD,,19,Lunes 2da quincena,06:00 a 14:00 hs
AMPLIACION PANAMERICANO,Marcos Infante 550.,20,Lunes 2da quincena,06:00 a 14:00 hs
HIPOLITO IRIGOYEN,AVELLANEDA 3571,20,Lunes 2da quincena,06:00 a 14:00 hs
JERONIMO L. DE CABRERA,CAROLA LORENZINI 381,20,Lunes 2da quincena,06:00 a 14:00 hs
JORGE NEWBERY,TEODORO FELS 5860,20,Lunes 2da quincena,06:00 a 14:00 hs
JUAN B. JUSTO,FRAGUEIRO 4915,20,Lunes 2da quincena,06:00 a 14:00 hs
MARIANO FRAGUEIRO,AVELLANEDA 4150,20,Lunes 2da quincena,06:00 a 14:00 hs
MARIANO FRAGUEIRO - ANEXO IPV,URQUIZA 4800,20,Lunes 2da quincena,06:00 a 14:00 hs
PANAMERICANO,,20,Lunes 2da quincena,06:00 a 14:00 hs
SARGENTO CABRAL,FRANCISCO SUAREZ 3170,20,Lunes 2da quincena,06:00 a 14:00 hs
CENTRO AMERICA,LESSEPS 250,21,Lunes 2da quincena,06:00 a 14:00 hs
CIUDAD JUAN PABLO II,CALLE PUBLICA S/N,21,Lunes 2da quincena,06:00 a 14:00 hs
LOS GIGANTES,JOAQUIN CASTELLANO Y JOSE DE OLMEDO,21,Lunes 2da quincena,06:00 a 14:00 hs
LOS GIGANTES ANEXO,PODESTA 3900 ESQ. CALLE PUBLICA,21,Lunes 2da quincena,06:00 a 14:00 hs
VILLA AZALAIS (O),"PABLO NERUDA Y ACAMPES, ACAMPES ESQ. GERCHUNOFF",21,Lunes 2da quincena,06:00 a 14:00 hs
ZUMARAN,"PLATON 3030, SEBASTIAN GABOTO 2356",21,Lunes 2da quincena,06:00 a 14:00 hs
PARQUE LICEO 1era SECCION,,22,Martes 2da quincena,06:00 a 14:00 hs
PARQUE LICEO 2da SECCION,"MANUEL GUTIERREZ NAJERA 1056,JUAN MOLTALVO 4676, BARTOLOME HIDALGO Y OLEGARIO V. ANDRADE, ATALIVA HERRERA Y COLECTORA",22,Martes 2da quincena,06:00 a 14:00 hs
PARQUE LICEO 3era SECCION,,22,Martes 2da quincena,06:00 a 14:00 hs
LOS BOULEVARES,CNO.A PAJAS BLANCAS KM.8,23,Martes 2da quincena,06:00 a 14:00 hs
MARIA LASTENIA,JUAN B. JUSTO 8560,23,Martes 2da quincena,06:00 a 14:00 hs
REMEDIOS DE ESCALADA,"F.F.C.C. GRAL. MANUEL BELGRANO, CORTADA 8 S/N -MARIA O. LOYOLA S/Nº",23,Martes 2da quincena,06:00 a 14:00 hs
CIUDAD CHINGOLO I,CALLE PUBLICA S/N,24,Martes 2da quincena,06:00 a 14:00 hs
LICEO GENERAL PAZ,JUAN B JUSTO 6900,24,Martes 2da quincena,06:00 a 14:00 hs
RECREO DEL NORTE,,24,Martes 2da quincena,06:00 a 14:00 hs
VILLA GRAN PARQUE,,24,Martes 2da quincena,06:00 a 14:00 hs
AMP. AMERICA,SOSA REVELLO 590,25,Miercoles de 2da quincena,06:00 a 14:00 hs
AMP. GRAL SAVIO,ESCOLASTICO MAGAN S-7N MZA 43 LOTE 2,25,Miercoles de 2da quincena,06:00 a 14:00 hs
DOCTOR RAMON JOSE CARCANO,PEDRO NAON 1330,25,Miercoles 2da quincena,06:00 a 14:00 hs
GENERAL SAVIO,,25,Miercoles 2da quincena,06:00 a 14:00 hs
VILLA AZALAIS,"CANDIDO GALVAN 1331, JOAQUIN V. MONTAÑA 1350, GELLY Y OBES 3110 ESQ. RAMON MUNILLA, JUAN GARRAMENDY ESQ. GUELLY",25,Miercoles 2da quincena,06:00 a 14:00 hs
PAULA ALBARRACIN DE SARMIENTO,MILAN 2960,25,Miercoles 2da quincena,06:00 a 14:00 hs
RESIDENCIAL AMERICA,"Florencio Parravicini esq Juan B Justo, DIAGONAL ICA ESQ SANTISO Y MOSCOSO 1250, JAMAICA 901, JAMAICA 967",26,Miercoles 2da quincena,06:00 a 14:00 hs
ALEM,AV. DEL TRABAJO 551,27,Miercoles 2da quincena,06:00 a 14:00 hs
GUAYAQUIL,NONDOLMA 1660,27,Miercoles 2da quincena,06:00 a 14:00 hs
LEANDRO N. ALEM,"COLOMPREA 1500, CAMICALTA 1650",27,Miercoles 2da quincena,06:00 a 14:00 hs
SAN NICOLAS,,27,Miercoles 2da quincena,06:00 a 14:00 hs
TALLERES ESTE,"PUNTA DEL SAUCE 1500, ROBERTO LEVILLIER 1848",27,Miercoles 2da quincena,06:00 a 14:00 hs
TALLERES OESTE,,27,Miercoles 2da quincena,06:00 a 14:00 hs
PATRIA,,28,Jueves 2da quincena,06:00 a 14:00 hs
PUEYRREDON,"Rincón, CELEDONIO FLORES 1426, COCHABAMBA 3200, SUIPACHA 2309, ANA MARIA JANER 1551, ESQUIU 1340, JUAN CAVERO 1280",28,Jueves 2da quincena,06:00 a 14:00 hs
BAJO GENERAL PAZ,,29,Jueves 2da quincena,06:00 a 14:00 hs
JUNIORS,"ARENALES ESQ. LA PLATA, LEONOR DE TEJEDA 1353",29,Jueves 2da quincena,06:00 a 14:00 hs
ALTO GENERAL PAZ,JOSE GARIBALDI 710,30,Jueves 2da quincena,06:00 a 14:00 hs
AMPLIACION YAPEYU,,30,Jueves 2da quincena,06:00 a 14:00 hs
BAJADA DE PIEDRA,,30,Jueves 2da quincena,06:00 a 14:00 hs
LA FLORESTA,CALLE PUBLICA S/Nº,30,Jueves 2da quincena,06:00 a 14:00 hs
NUEVA ITALIA,JOSE DE QUEVEDO Y DOS BARRIOS,31,Viernes 2da quincena,06:00 a 14:00 hs
PARQUE MONTECRISTO,PEDRO DE LEDESMA 1755,31,Viernes 2da quincena,06:00 a 14:00 hs
SANTA CLARA DE ASIS,,31,Viernes 2da quincena,06:00 a 14:00 hs
VIVERO,A. CAPDEVILA Y DIAZ COLODRERO,31,Viernes 2da quincena,06:00 a 14:00 hs
YOFRE NORTE,"JACINTO ALTOLAGUIRRE 2089, NICOLAS DE ISASMENDI ESQ. MARTIN ALLENDE 2005",31,Viernes 2da quincena,06:00 a 14:00 hs
AMPLIACION PALMAR,ANTONIO MACHONI 1700,32,Viernes 2da quincena,06:00 a 14:00 hs
AMPLIACION PUEYRREDÓN,,32,Viernes 2da quincena,06:00 a 14:00 hs
PALMAR,,32,Viernes 2da quincena,06:00 a 14:00 hs
VILLA CLAUDINA,"OCARINA 1613, CNO A MONTE CRISTO KM 5 Y ½",32,Viernes 2da quincena,06:00 a 14:00 hs
YAPEYU,"GERMANIA 2665, 24 DE SETIEMBRE 2400",32,Viernes 2da quincena,06:00 a 14:00 hs
YOFRE SUR,"EDUARDO DE SAN MARTIN 1282, EDUARDO SAUL MARTIN 1441",32,Viernes 2da quincena,06:00 a 14:00 hs
ZEPA A Y B,CALLE PUBLICA S/N DETRÁS DEL MERCADO DE ABASTO,32,Viernes 2da quincena,06:00 a 14:00 hs
ARTURO CAPDEVILA,FEDERICO RAUCH 2789,34,Sabado 2da quincena,06:00 a 14:00 hs
PATRICIOS,"JOSE VILLEGAS 2100, MARIANO USANDIVARAS 2254",34,Sabado 2da quincena,06:00 a 14:00 hs
PATRICIOS NORTE,,34,Sabado 2da quincena,06:00 a 14:00 hs
PATRICIOS OESTE,MADRE MARÍA BRIGIDA PASTORINO 3500,34,Sabado 2da quincena,06:00 a 14:00 hs
RESIDENCIAL ARAGON,,34,Sabado 2da quincena,06:00 a 14:00 hs
VILLA CORINA,Rancagua 2865.,34,Sabado 2da quincena,06:00 a 14:00 hs
YOFRE H,,34,Sabado 2da quincena,06:00 a 14:00 hs
FINCA LA DOROTEA,,35,Sabado 2da quincena,06:00 a 14:00 hs
GENERAL ARENALES,,35,Sabado 2da quincena,06:00 a 14:00 hs
YOFRE I,,35,Sabado 2da quincena,06:00 a 14:00 hs
CIUDAD VILLA RETIRO,RUTA PROV. 112 CALLE CHINGOLO S/Nº,36,Sabado 2da quincena,06:00 a 14:00 hs
CIUDAD VILLA RETIRO ANEXO,MANZANA 9 - CALLE PÚBLICA S/N,36,Sabado 2da quincena,06:00 a 14:00 hs
EL GATEADO,"CAMINO A SANTIAGO DEL ESTERO 0, RUTA 111 KM.12 - ZONA RURAL",36,Sabado 2da quincena,06:00 a 14:00 hs
VILLA ESQUIU,AV. ARTURO CAPDEVILA 9500,36,Sabado 2da quincena,06:00 a 14:00 hs
I.P.E.M. N° 192 - DR. JOSE RAMON IBAÑEZ,ARTURO CAPDEVILA KM 10,36,Sabado 2da quincena,06:00 a 14:00 hs
VILLA ESQUIU,LAS QUINTAS S/Nº - EX AVDA. ARTURO CAPDEVILA KM 9/2,36,Sabado 2da quincena,06:00 a 14:00 hs
VILLA RETIRO,CALLE PUBLICA S/N - MZA. 9,36,Sabado 2da quincena,06:00 a 14:00 hs
CERRO DE LAS ROSAS,"TRISTAN MALBRAN 4052, AV. FERNANDO FADER 3821, AV. SAGRADA FAMILIA 1545, AV. T. MALBRAN 4178, NICANOR CARRANZA 3445",11,Jueves 1era quincena,06:00 a 14:00 hs
CERRO DE LAS ROSAS,"TRISTAN MALBRAN 4052, AV. FERNANDO FADER 3821, AV. SAGRADA FAMILIA 1545, AV. T. MALBRAN 4178, NICANOR CARRANZA 3445",12,Jueves 1era quincena,06:00 a 14:00 hs
BAJO GALÁN,AV. CASTRO BARROS 1285,16,Sabado 1era quincena,06:00 a 14:00 hs
BAJO GALÁN,AV. CASTRO BARROS 1285,17,Sabado 1era quincena,06:00 a 14:00 hs
COFICO,AV. ROQUE S. PEÑA 1211,17,Sabado 1era quincena,06:00 a 14:00 hs
COFICO,AV. ROQUE S. PEÑA 1211,18,Sabado 1era quincena,06:00 a 14:00 hs
GENERAL BUSTOS,Saravia 1455.,19,Lunes 2da quincena,06:00 a 14:00 hs
GENERAL BUSTOS,Saravia 1455.,26,Lunes 2da quincena,06:00 a 14:00 hs
GENERAL BUSTOS,Saravia 1455.,19,Miercoles 2da quincena,06:00 a 14:00 hs
GENERAL BUSTOS,Saravia 1455.,26,Miercoles 2da quincena,06:00 a 14:00 hs
GUIÑAZU,"DE LA CAJA ESQ. DEL ERQUENCHO, Calle Ibar Segura Funes s/n, JUAN B JUSTO KM9653, RUTA 9 KM 13 1/2",23,Martes 2da quincena,06:00 a 14:00 hs
GUIÑAZU,"DE LA CAJA ESQ. DEL ERQUENCHO, Calle Ibar Segura Funes s/n, JUAN B JUSTO KM9653, RUTA 9 KM 13 1/2",24,Martes 2da quincena,06:00 a 14:00 hs
GENERAL BUSTOS,"MAURICIO YADAROLA 653, DIAGONAL IKA 1010, AV. AUGUSTO LOPEZ 643, GALEOTTI 1250, MAURICIO YADAROLA 653 ESQ. DIAGONAL ICA",26,Miercoles 2da quincena,06:00 a 14:00 hs
GENERAL BUSTOS,"MAURICIO YADAROLA 653, DIAGONAL IKA 1010, AV. AUGUSTO LOPEZ 643, GALEOTTI 1250, MAURICIO YADAROLA 653 ESQ. DIAGONAL ICA",27,Miercoles 2da quincena,06:00 a 14:00 hs
GENERAL PAZ,VIAMONTE 446,28,Jueves 2da quincena,06:00 a 14:00 hs
GENERAL PAZ,VIAMONTE 446,29,Jueves 2da quincena,06:00 a 14:00 hs
HOGAR PROPIO,,29,Jueves 2da quincena,06:00 a 14:00 hs
HOGAR PROPIO,,30,Jueves 2da quincena,06:00 a 14:00 hs
ARGUELLO,"Ricardo Rojas esq Av. Rafael Nuñez, MIGUEL VERA 7793, RAIMUNDO CAPARROZ 7347, POZO DE LOMA 7309, TABACUE 9150, GABRIEL TOMASSINI 6951",3,Lunes 1era quincena,06:00 a 14:00 hs
ARGUELLO,"Ricardo Rojas esq Av. Rafael Nuñez, MIGUEL VERA 7793, RAIMUNDO CAPARROZ 7347, POZO DE LOMA 7309, TABACUE 9150, GABRIEL TOMASSINI 6951",4,Lunes 1era quincena,06:00 a 14:00 hs
ARGUELLO,"Ricardo Rojas esq Av. Rafael Nuñez, MIGUEL VERA 7793, RAIMUNDO CAPARROZ 7347, POZO DE LOMA 7309, TABACUE 9150, GABRIEL TOMASSINI 6951",3,Martes 1era quincena,06:00 a 14:00 hs
ARGUELLO,"Ricardo Rojas esq Av. Rafael Nuñez, MIGUEL VERA 7793, RAIMUNDO CAPARROZ 7347, POZO DE LOMA 7309, TABACUE 9150, GABRIEL TOMASSINI 6952",4,Martes 1era quincena,06:00 a 14:00 hs
GRANJA DE FUNES,CALLE PUBLICA S/N,4,Martes 1era quincena,06:00 a 14:00 hs
GRANJA DE FUNES,CALLE PUBLICA S/N,5,Martes 1era quincena,06:00 a 14:00 hs
VILLA BELGRANO,D`ALEMBERT 5655,4,Martes 1era quincena,06:00 a 14:00 hs
VILLA BELGRANO,D`ALEMBERT 5656,5,Martes 1era quincena,06:00 a 14:00 hs
GRANJA DE FUNES,AGUSTIN ALCAIN 6032,4,Martes 1era quincena,06:00 a 14:00 hs
GRANJA DE FUNES,AGUSTIN ALCAIN 6033,5,Martes 1era quincena,06:00 a 14:00 hs
BRIGADIER SAN MARTIN,,5,Martes 1era quincena,06:00 a 14:00 hs
BRIGADIER SAN MARTIN,,7,Martes 1era quincena,06:00 a 14:00 hs
BRIGADIER SAN MARTIN,,5,Miercoles 1era quincena,06:00 a 14:00 hs
BRIGADIER SAN MARTIN,,7,Miercoles 1era quincena,06:00 a 14:00 hs
